{
  "hosting": {
    "public": "build",
    "ignore": ["firebase.json", "**/.*", "**/node_modules/**"],
    "redirects": [
      {
        "source": "/IT/**",
        "destination": "/",
        "type": 301
      },
      {
        "source": "/EN/**",
        "destination": "/",
        "type": 301
      }
    ],
    "rewrites": [
      {
        "source": "**",
        "destination": "/index.html"
      }
    ]
  }
}
